{
  "extends": "tslint-config-airbnb",
  "rules": {
    "align": false,
    "trailing-comma": false,
    "no-increment-decrement": false,
    "no-boolean-literal-compare": false,
    "max-line-length": false,
    "semicolon": [
      true,
      "always"
    ],
    "ter-arrow-parens": false,
    "no-parameter-reassignment": false,
    "function-name": false,
    "no-this-assignment": false
  }
}
